…
Be sure to explain your reasoning for this task. Show us the “before”
and “after”.

<!--------------------------- Start your work below --------------------------->

**(A2.2)**: Because VanTreeUBC\_chosen is a tidy dataset, I will untidy
it.

``` r
# Demonstrate the dataset
print(VanTreeUBC_chosen, n=5)
```

    ## # A tibble: 18,672 × 21
    ##   tree_id civic_number std_street   genus_name species_name cultivar_name
    ##     <dbl>        <dbl> <chr>        <chr>      <chr>        <chr>        
    ## 1  155373         1900 CYPRESS ST   PRUNUS     CERASIFERA   NIGRA        
    ## 2  155413         2485 W BROADWAY   ULMUS      AMERICANA    BRANDON      
    ## 3  155436         3039 COURTENAY ST MAGNOLIA   KOBUS        <NA>         
    ## 4  155446         2246 W 15TH AV    ACER       RUBRUM       KARPICK      
    ## 5  156061         2659 W 19TH AV    FRAXINUS   AMERICANA    <NA>         
    ## # … with 18,667 more rows, and 15 more variables: common_name <chr>,
    ## #   assigned <chr>, root_barrier <chr>, plant_area <chr>,
    ## #   on_street_block <dbl>, on_street <chr>, neighbourhood_name <chr>,
    ## #   street_side_name <chr>, height_range_id <dbl>, diameter <dbl>, curb <chr>,
    ## #   date_planted <date>, longitude <dbl>, latitude <dbl>, tree_age <dbl>
``` r
# Considering the original dataset is not suitable for this task, I simplify the dataset into a smaller matrix.
VanTreeUBC_chosen_2 <- VanTreeUBC_chosen %>%
  group_by(species_name,neighbourhood_name) %>%
  summarize(num=n())
```

    ## `summarise()` has grouped output by 'species_name'. You can override using the `.groups` argument.

``` r
# Before untidying:
print(VanTreeUBC_chosen_2, n=5)
```

    ## # A tibble: 55 × 3
    ## # Groups:   species_name [11]
    ##   species_name   neighbourhood_name   num
    ##   <chr>          <chr>              <int>
    ## 1 ACERIFOLIA   X ARBUTUS-RIDGE        103
    ## 2 ACERIFOLIA   X DUNBAR-SOUTHLANDS    168
    ## 3 ACERIFOLIA   X KITSILANO            141
    ## 4 ACERIFOLIA   X SHAUGHNESSY          238
    ## 5 ACERIFOLIA   X WEST POINT GREY      129
    ## # … with 50 more rows

``` r
# Try to untidy the dataset
A2.2.1 <- pivot_wider(VanTreeUBC_chosen_2, id_cols = species_name, names_from = neighbourhood_name , values_from = num)

# After untidying:
print(A2.2.1, n=5)
```

    ## # A tibble: 11 × 6
    ## # Groups:   species_name [11]
    ##   species_name   `ARBUTUS-RIDGE` `DUNBAR-SOUTHLANDS` KITSILANO SHAUGHNESSY
    ##   <chr>                    <int>               <int>     <int>       <int>
    ## 1 ACERIFOLIA   X             103                 168       141         238
    ## 2 AMERICANA                  225                 435       260         780
    ## 3 CERASIFERA                 895                1061       435         632
    ## 4 EUCHLORA   X                55                  78       432          72
    ## 5 HIPPOCASTANUM              125                 274       277         311
    ## # … with 6 more rows, and 1 more variable: WEST POINT GREY <int>

``` r
# Try to tidy the dataset
A2.2.2 <- pivot_longer(A2.2.1, c("ARBUTUS-RIDGE","DUNBAR-SOUTHLANDS","KITSILANO","SHAUGHNESSY","WEST POINT GREY"), names_to = "neighbourhood_name", values_to = "num")

# Dataset check after tidying:
print(A2.2.2, n=5)
```

    ## # A tibble: 55 × 3
    ## # Groups:   species_name [11]
    ##   species_name   neighbourhood_name   num
    ##   <chr>          <chr>              <int>
    ## 1 ACERIFOLIA   X ARBUTUS-RIDGE        103
    ## 2 ACERIFOLIA   X DUNBAR-SOUTHLANDS    168
    ## 3 ACERIFOLIA   X KITSILANO            141
    ## 4 ACERIFOLIA   X SHAUGHNESSY          238
    ## 5 ACERIFOLIA   X WEST POINT GREY      129
    ## # … with 50 more rows
…
